Project 3 - Body performance Data
…
Chuyển đổi kiểu dữ liệu cho các biến class, gender

data <- data1 |> mutate(
  gender = as.factor(gender),
  class = as.factor(class)
)
data

## # A tibble: 13,248 × 12
##      age gender height_cm weight_kg body_fat_percent diastolic systolic
##    <dbl> <fct>      <dbl>     <dbl>            <dbl>     <dbl>    <dbl>
##  1    27 M           172.      75.2             21.3        80      130
##  2    25 M           165       55.8             15.7        77      126
##  3    31 M           180.      78               20.1        92      152
##  4    32 M           174.      71.1             18.4        76      147
##  5    28 M           174.      67.7             17.1        70      127
##  6    36 F           165.      55.4             22          64      119
##  7    42 F           164.      63.7             32.2        72      135
##  8    33 M           175.      77.2             36.9        84      137
##  9    54 M           167.      67.5             27.6        85      165
## 10    28 M           185       84.6             14.4        81      156
## # ℹ 13,238 more rows
## # ℹ 5 more variables: grip_force <dbl>, sit_and_bend_forward_cm <dbl>,
## #   sit_ups_counts <dbl>, broad_jump_cm <dbl>, class <fct>
…
# Xác định các cột số
numeric_cols <- sapply(data, is.numeric)

# Loại bỏ giá trị ngoại lai
data_cleaned <- remove_outliers(data, names(data)[numeric_cols])
data_cleaned

## # A tibble: 12,619 × 12
##      age gender height_cm weight_kg body_fat_percent diastolic systolic
##    <dbl> <fct>      <dbl>     <dbl>            <dbl>     <dbl>    <dbl>
##  1    27 M           172.      75.2             21.3        80      130
##  2    25 M           165       55.8             15.7        77      126
##  3    31 M           180.      78               20.1        92      152
##  4    32 M           174.      71.1             18.4        76      147
##  5    28 M           174.      67.7             17.1        70      127
##  6    36 F           165.      55.4             22          64      119
##  7    42 F           164.      63.7             32.2        72      135
##  8    33 M           175.      77.2             36.9        84      137
##  9    54 M           167.      67.5             27.6        85      165
## 10    28 M           185       84.6             14.4        81      156
## # ℹ 12,609 more rows
## # ℹ 5 more variables: grip_force <dbl>, sit_and_bend_forward_cm <dbl>,
## #   sit_ups_counts <dbl>, broad_jump_cm <dbl>, class <fct>
…
